@relation train80-200-testsplit

@attribute id numeric
@attribute a1 numeric
@attribute a2 numeric
@attribute a3 numeric
@attribute a4 numeric
@attribute a5 numeric
@attribute a6 numeric
@attribute a7 numeric
@attribute a8 numeric
@attribute a9 numeric
@attribute a10 numeric
@attribute a11 numeric
@attribute a12 numeric
@attribute a13 numeric
@attribute a14 numeric
@attribute a15 numeric
@attribute a16 numeric
@attribute a17 numeric
@attribute a18 numeric
@attribute a19 numeric
@attribute a20 numeric
@attribute a21 numeric
@attribute a22 numeric
@attribute a23 numeric
@attribute a24 numeric
@attribute a25 numeric
@attribute a26 numeric
@attribute a27 numeric
@attribute a28 numeric
@attribute a29 numeric
@attribute a30 numeric
@attribute a31 numeric
@attribute a32 numeric
@attribute a33 numeric
@attribute a34 numeric
@attribute a35 numeric
@attribute a36 numeric
@attribute a37 numeric
@attribute a38 numeric
@attribute a39 numeric
@attribute a40 numeric
@attribute a41 numeric
@attribute a42 numeric
@attribute a43 numeric
@attribute a44 numeric
@attribute a45 numeric
@attribute a46 numeric
@attribute a47 numeric
@attribute a48 numeric
@attribute a49 numeric
@attribute a50 numeric
@attribute a51 numeric
@attribute a52 numeric
@attribute a53 numeric
@attribute a54 numeric
@attribute a55 numeric
@attribute a56 numeric
@attribute a57 numeric
@attribute a58 numeric
@attribute a59 numeric
@attribute a60 numeric
@attribute a61 numeric
@attribute a62 numeric
@attribute a63 numeric
@attribute a64 numeric
@attribute a65 numeric
@attribute a66 numeric
@attribute a67 numeric
@attribute a68 numeric
@attribute a69 numeric
@attribute a70 numeric
@attribute a71 numeric
@attribute a72 numeric
@attribute a73 numeric
@attribute a74 numeric
@attribute a75 numeric
@attribute a76 numeric
@attribute a77 numeric
@attribute a78 numeric
@attribute class numeric

@data
10619,0.66,0.507,-0.314,-1,0,0,0,0,0.488,0,0.468,1,-0.0877,0.000399,-0.000029,0,0,0,0.857,?,?,?,0.958,0.766,0.502,0,0,0,0,0,0,0,0,0,0,0,0,0,0,0,0,0,0,0,0,0,0,0,0,0,0,0,0,0,0,0,0,0,0,0,0,0,0,0.0191,0.66,-1,0.555,0,0,0,0,0.66,0.507,-0.314,-1,1,0.0191,0.555,0
13860,0.505,0.156,-0.917,-1,0,0,0,0,0,0,0,0,-0.000477,0,0,0,1,0.5,0.478,?,?,?,0.657,0,0,0,0,0,0,0,0,0,0,0,0,0,0,0,0,0,0,0,0,0,0,0,0,0,0,0,0,0,0,0,0,0,0,0,0,0,0,0,0,0.0015,0.505,-1,0.832,0,0,0,0,0.505,0.156,-0.917,-1,1,0.0015,0.832,0
12535,0,0,0,0,0,0,0,0,0.739,1.57,-0.97,-1,-0.999,-0.994,0.000137,0,0,0,1.24,?,?,?,0.463,0.439,0.673,0.453,0.246,0.994,10000,1,-1,820,9.08,0.439,0,0,0,0,0,0,0,0,1,999,999,?,0,0,0,0,0,0,0,0,0,0,0,0,0,0,0,0,0,0.0105,0.739,-1,0.894,0.81,1,0.000089,0.000007,0,0,0,0,0,0,0,0
18893,0,0,0,0,0,0,0,0,0.438,1.28,-0.792,-1,-0.112,0.00007,-0.000039,2,0,0,0.916,-0.532,-0.681,-0.742,0.842,0.617,0.545,0.999,0.247,0.000001,10000,0,1,571,4.88,0.218,1,0,-3.93,-1.14,1.62,0.0793,0.00953,0.00111,1,0.588,0.961,-0.969,0,0,0,0,0,10,0.247,0.000001,10000,1,571,4.88,0.218,0.588,0.961,-0.969,9,0.0664,0.532,-1,0.681,0.772,-1,-0.112,-0.000182,0,0,0,0,0,0,0,0
3003,0,0,0,0,0,0,0,0,0.375,0.372,0.374,-1,-0.000023,-0.000004,0,1,0,0,0.465,?,?,?,0.561,0.328,0.181,0,0,0,0,0,0,0,0,0,0,0,0,0,0,0,0,0,0,0,0,0,0,0,0,0,0,0,0,0,0,0,0,0,0,0,0,0,0,0,0,0,0,0,0,0,0,0,0,0,0,0,0,0,1
46925,0,0,0,0,0,0,0,0,0.736,0.967,-0.719,1,-0.000028,0.000028,0.000026,1,1,0.499,0.676,?,?,?,0.576,0.498,0.492,0.181,0.0557,0.000001,10000,0,-1,0,3.27,0.056,0,1,0,0,0,0,0,0,1,0.512,0.763,-0.435,0,0,0,0,0,10,0.0557,0.000001,10000,-1,0,3.27,0.056,0.512,0.763,-0.435,-21,0.0387,0.736,1,0.995,0.182,1,0.000028,0.641,0,0,0,0,0,0,0,0
22615,0.949,0.782,-0.141,-1,0,0,0,0,0.556,1.31,-0.852,1,-0.327,-0.102,0.000919,0,0,0,1.16,-0.949,-0.967,-0.96,0.701,0.947,0.419,0,0,0,0,0,0,0,0,0,0,0,0,0,0,0,0,0,0,0,0,0,0,0,0,0,0,0,0,0,0,0,0,0,0,0,0,0,0,0.0506,0.949,-1,0.967,0,0,0,0,0.949,0.782,-0.141,-1,1,0.0506,0.967,0
25027,0,0,0,0,1.1,0.559,-0.257,-1,0.485,0.494,-0.048,1,-0.0504,-0.0292,0.000088,0,0,0,1.4,-0.752,-0.681,-0.636,1.29,0.984,0.68,0.759,0.139,0.000001,10000,1,1,562,4.98,0.213,0,0,0,0,0,0,0,0,1,1.1,0.997,-0.728,0,0,0,0,0,10,0.139,0.000001,10000,1,562,4.98,0.213,1.1,0.997,-0.728,2,0.0109,1.1,-1,0.997,0.977,-1,-0.0292,-0.428,0,0,0,0,0,0,0,0
28417,0,0,0,0,0,0,0,0,0.772,0.756,0.774,1,0.139,-0.000052,0.000015,3,0,0,0.872,?,?,?,1.16,0.392,0.438,0,0,0,0,0,0,0,0,0,0,0,0,0,0,0,0,0,0,0,0,0,0,0,0,0,0,0,0,0,0,0,0,0,0,0,0,0,0,0.00571,0.772,1,0.912,0,0,0,0,0,0,0,0,0,0,0,0
38175,0,0,0,0,0,0,0,0,1.24,1.16,0.324,-1,-0.873,-0.731,-0.00102,1,0,0,1.34,-1.24,0.958,-0.991,0.555,2,0.798,0.894,0.0837,0.000001,10000,0,1,0,1.27,0.0393,1,0,-0.597,0.54,0.731,0.125,0.00446,0.00843,1,1.24,0.958,-0.974,0,0,0,0,0,10,0.0837,0.000001,10000,1,0,1.27,0.0393,1.24,0.958,-0.974,2,0.0078,1.24,-1,0.958,0.945,-1,-0.873,-0.768,0,0,0,0,0,0,0,0
34121,0,0,0,0,0,0,0,0,1.56,0.552,-0.515,-1,-0.00678,0.000071,0.000062,0,0,0,1.69,?,?,?,1.64,0.677,0.638,0.788,0.151,0,10000,0,-1,552,6.01,0.175,0,0,0,0,0,0,0,0,1,999,999,?,0,0,0,0,0,10,0.147,0,10000,1,684,5.52,0.16,1.56,0.902,-0.0731,4,0.0276,1.56,-1,0.902,0.696,1,0.000071,0.373,0,0,0,0,0,0,0,1
36148,0,0,0,0,0,0,0,0,0.505,0.49,0.2,1,-0.163,0.000513,0.000062,1,0,0,0.787,?,?,?,0.597,0.69,0.599,0,0,0,0,0,0,0,0,0,0,0,0,0,0,0,0,0,0,0,0,0,0,0,0,0,0,0,0,0,0,0,0,0,0,0,0,0,0,0.0247,0.505,1,0.588,0,0,0,0,0,0,0,0,0,0,0,1
2509,0,0,0,0,0,0,0,0,1.04,1.21,-0.605,-1,-0.963,0.2,-0.000079,1,0,0,1.11,-1.04,-0.843,-0.699,0.938,1.2,0.72,0.91,0.146,0,10000,0,-1,801,7.42,0.164,0,0,0,0,0,0,0,0,1,0.763,0.662,-0.299,0,0,0,0,0,10,0.137,0.000002,10000,1,0,4.93,0.242,1.04,0.843,-0.679,2,0.00647,1.04,-1,0.843,-0.299,1,0.2,0.675,0,0,0,0,0,0,0,0
28243,0,0,0,0,1.37,0.94,0.977,-1,0.8,1.43,0.859,1,0.96,-0.0832,-0.000001,0,0,0,1.43,?,?,?,1.2,1.91,0.252,0.519,0.163,0.000001,10000,1,-1,522,4.39,0.252,0,0,0,0,0,0,0,0,1,0.8,0.893,-0.466,0,0,0,0,0,10,0.163,0.000001,10000,-1,522,4.39,0.252,0.8,0.893,-0.466,0,0.000173,1.37,-1,0.966,-0.466,1,0.96,0.0709,0,0,0,0,0,0,0,1
29454,0,0,0,0,0,0,0,0,0.631,0.556,-0.00894,1,0.946,-0.00726,-0.000053,1,0,0,0.934,0.609,-0.447,-0.0228,0.613,0.695,0.602,0,0,0,0,0,0,0,0,0,0,0,0,0,0,0,0,0,0,0,0,0,0,0,0,0,0,0,0,0,0,0,0,0,0,0,0,0,0,0.00721,0.631,1,0.855,0,0,0,0,0,0,0,0,0,0,0,1
48991,0,0,0,0,0,0,0,0,0.247,1.02,-0.856,-1,1,0.00001,-0.000004,1,0,0,0.521,?,?,?,0.232,0.395,0.312,0.176,0.118,0.000001,10000,0,-1,0,51.6,0.0722,0,0,0,0,0,0,0,0,1,999,999,?,0,0,0,0,0,0,0,0,0,0,0,0,0,0,0,0,0,0,0,0,0,0.201,1,1,0.267,0,0,0,0,0,0,0,1
418,0.502,1.13,-0.125,1,0,0,0,0,0.127,0.861,-0.179,-1,0.00318,-0.000042,0,0,0,0,0.625,?,?,?,0.739,0.451,0.152,0.212,0.127,0,10000,1,-1,1040,7.03,0.152,0,0,0,0,0,0,0,0,1,0.502,0.808,-0.389,0,0,0,0,0,10,0.127,0,10000,-1,1040,7.03,0.152,0.502,0.808,-0.389,0,0.0632,0.502,1,0.808,-0.389,1,0.00318,0.205,0.502,1.13,-0.125,1,1,0.0632,0.808,0
43187,0.92,0.838,-0.866,-1,0,0,0,0,0.628,0.543,0.331,-1,-0.263,-0.072,-0.000072,3,1,0.499,0.973,-0.92,-0.989,-0.752,1.01,0.864,0.677,0,0,0,0,0,0,0,0,0,0,0,0,0,0,0,0,0,0,0,0,0,0,0,0,0,0,0,0,0,0,0,0,0,0,0,0,0,0,0.0156,0.628,-1,0.832,0,0,0,0,0.92,0.838,-0.866,-1,1,0.355,0.989,1
45838,0,0,0,0,0,0,0,0,0.63,0.187,-0.935,1,0.842,-0.602,0.0014,0,0,0,0.743,?,?,?,0.688,0.71,0.879,0.972,0.134,0.000002,10000,0,-1,0,6.05,0.225,0,0,0,0,0,0,0,0,1,999,999,?,0,0,0,0,0,0,0,0,0,0,0,0,0,0,0,0,0,0.0126,0.63,1,0.914,0.969,1,0.842,0.854,0,0,0,0,0,0,0,1
45963,0,0,0,0,0,0,0,0,1.7,0,0.0616,1,0.966,-0.000021,0.000003,0,0,0,1.73,?,?,?,2.19,0.46,0.29,0,0,0,0,0,0,0,0,0,0,0,0,0,0,0,0,0,0,0,0,0,0,0,0,0,0,0,0,0,0,0,0,0,0,0,0,0,0,0.00717,1.7,1,0.994,0,0,0,0,0,0,0,0,0,0,0,1
35915,0,0,0,0,0,0,0,0,0.656,1.03,-0.769,1,0.968,-0.427,-0.338,2,0,0,1.19,?,?,?,0.38,1.41,1.25,0.405,0.238,0,10000,1,-1,664,4.88,0.184,0,0,0,0,0,0,0,0,1,0.656,0.994,-0.463,0,0,0,0,0,10,0.238,0,10000,-1,664,4.88,0.184,0.656,0.994,-0.463,0,0.0333,0.986,-1,0.955,0.305,1,0.968,0.000177,0,0,0,0,0,0,0,1
4734,0.448,0,0.102,1,0,0,0,0,0.726,0.0373,-0.814,-1,0.0131,0.000594,-0.000022,1,0,0,0.695,?,?,?,0.782,0.528,0.557,0,0,0,0,0,0,0,0,0,0,0,0,0,0,0,0,0,0,0,0,0,0,0,0,0,0,0,0,0,0,0,0,0,0,0,0,0,0,0.0144,0.726,-1,0.962,0,0,0,0,0.448,0,0.102,1,1,0.00169,0.841,1
26509,1.89,0.186,-0.967,-1,0,0,0,0,0.904,0.142,0.851,1,0.13,-0.0402,-0.00449,0,0,0,1.46,?,?,?,1.21,1.22,1.28,0,0,0,0,0,0,0,0,0,0,0,0,0,0,0,0,0,0,0,0,0,0,0,0,0,0,0,0,0,0,0,0,0,0,0,0,0,0,0.00501,1.89,-1,0.895,0,0,0,0,0,0,0,0,0,0,0,0
42252,0,0,0,0,0.885,1.25,-0.822,-1,0.458,1.21,-0.542,1,-0.0987,0.000049,0,0,0,0,0.788,?,?,?,1.36,0.582,0,0,0,0,0,0,0,0,0,0,0,0,0,0,0,0,0,0,0,0,0,0,0,0,0,0,0,0,0,0,0,0,0,0,0,0,0,0,0,0.0378,0.885,-1,0.944,0,0,0,0,0,0,0,0,0,0,0,1
42563,0,0,0,0,0,0,0,0,0.629,0.633,-0.633,1,0.985,0.981,0.882,2,0,0,1.08,?,?,?,0.741,0.258,0.247,0,0,0,0,0,0,0,0,0,0,0,0,0,0,0,0,0,0,0,0,0,0,0,0,0,0,0,0,0,0,0,0,0,0,0,0,0,0,0.00815,0.629,1,0.868,0,0,0,0,0,0,0,0,0,0,0,1
8584,0,0,0,0,0,0,0,0,0.714,0.719,-0.139,1,1,0.00552,0.000035,2,0,0,1.08,0.714,0.77,-0.231,0.415,0.755,0.529,0.844,0.122,0.000001,10000,0,-1,752,7.52,0.207,0,0,0,0,0,0,0,0,1,0.509,0.787,-0.499,0,0,0,0,0,10,0.122,0.000001,10000,-1,752,7.52,0.207,0.509,0.787,-0.499,0,0.00281,0.714,1,0.77,0.595,1,1,0.49,0,0,0,0,0,0,0,1
12545,0,0,0,0,0,0,0,0,1.58,0.697,-0.856,-1,0.98,-0.972,-0.957,0,0,0,1.79,0.561,-0.181,-0.179,0.804,0.68,2.14,0.947,0.161,0.000001,10000,1,1,615,5.18,0.217,0,0,0,0,0,0,0,0,1,0.513,0.806,-0.943,0,0,0,0,0,10,0.161,0.000001,10000,1,615,5.18,0.217,0.513,0.806,-0.943,0,0.00417,1.58,-1,0.979,0.875,-1,-0.957,-0.732,0,0,0,0,0,0,0,0
19784,0,0,0,0,1.02,0.862,0.0329,1,0.632,1.47,-0.875,-1,0.127,0.0715,-0.0457,1,0,0,1.22,?,?,?,1.07,0.451,0.953,0,0,0,0,0,0,0,0,0,0,0,0,0,0,0,0,0,0,0,0,0,0,0,0,0,0,0,0,0,0,0,0,0,0,0,0,0,0,0.0111,1.02,1,0.877,0,0,0,0,0,0,0,0,0,0,0,0
32251,0,0,0,0,1.72,0.265,-0.547,1,0.881,1.2,-0.345,1,0.924,0.0185,-0.000185,1,0,0,2.01,1.72,-0.968,-0.597,1.03,1.73,0.925,0.994,0.0626,0.000001,10000,0,-1,0,8.98,0.11,0,0,0,0,0,0,0,0,1,1.72,0.968,-0.936,0,0,0,0,0,10,0.0626,0.000001,10000,-1,0,8.98,0.11,1.72,0.968,-0.936,-2,0.00417,1.72,1,0.968,0.834,1,0.924,0.883,0,0,0,0,0,0,0,1
20354,0,0,0,0,0,0,0,0,1.03,0,-0.83,-1,-0.000713,-0.000102,0,0,0,0,1.09,?,?,?,0.82,0.805,0,0,0,0,0,0,0,0,0,0,0,0,0,0,0,0,0,0,0,0,0,0,0,0,0,0,0,0,0,0,0,0,0,0,0,0,0,0,0,0.0253,1.03,-1,0.83,0,0,0,0,0,0,0,0,0,0,0,1
34350,0,0,0,0,0,0,0,0,0.637,0.273,0.613,-1,0.00482,0.000311,-0.00008,0,0,0,0.868,?,?,?,1.19,0.627,0.515,0.651,0.235,0,10000,1,-1,664,4.1,0.196,0,0,0,0,0,0,0,0,1,0.784,0.56,-0.959,0,0,0,0,0,10,0.235,0,10000,-1,664,4.1,0.196,0.784,0.56,-0.959,-8,0.0212,0.784,1,0.56,0.312,1,0.000311,0.000516,0,0,0,0,0,0,0,1
12270,0,0,0,0,0,0,0,0,0.708,0.696,0.288,-1,-0.00027,-0.000025,0.000009,0,0,0,0.936,?,?,?,0.935,0.482,0.356,0.398,0.218,0.000009,10000,1,1,0,3.27,0.356,0,0,0,0,0,0,0,0,1,0.708,0.892,-0.0365,0,0,0,0,0,10,0.218,0.000009,10000,1,0,3.27,0.356,0.708,0.892,-0.0365,6,0.0126,0.708,-1,0.892,0.722,1,0.000004,0.000214,0,0,0,0,0,0,0,0
28285,0,0,0,0,1.67,0.483,-0.669,1,1.48,0.136,-0.00915,-1,-0.0519,0.041,0.000037,1,0,0,2.05,?,?,?,1.54,2.4,0.537,0,0,0,0,0,0,0,0,0,0,0,0,0,0,0,0,0,0,0,0,0,0,0,0,0,0,0,0,0,0,0,0,0,0,0,0,0,0,0.00376,1.67,1,0.957,0,0,0,0,0,0,0,0,0,0,0,1
18809,0,0,0,0,0,0,0,0,0.662,0.234,0.498,-1,-0.0455,0.00097,-0.000273,1,0,0,0.971,-0.921,-0.897,-0.546,1.06,0.402,0.794,0,0,0,0,0,0,0,0,0,0,0,0,0,0,0,0,0,0,0,0,0,0,0,0,0,0,0,0,0,0,0,0,0,0,0,0,0,0,0.048,0.921,-1,0.897,0,0,0,0,0,0,0,0,0,0,0,1
36859,0,0,0,0,0,0,0,0,0.66,0.47,0.777,-1,0.123,-0.00334,-0.000021,2,0,0,0.906,?,?,?,0.911,0.707,0.463,0.331,0.139,0.000002,10000,1,-1,0,3.61,0.244,0,0,0,0,0,0,0,0,1,999,999,?,0,0,0,0,0,0,0,0,0,0,0,0,0,0,0,0,0,0.0465,0.588,1,0.794,0.677,1,0.123,0.156,0,0,0,0,0,0,0,1
41414,0,0,0,0,0,0,0,0,0.544,0.429,0.184,-1,0.972,-0.00149,0.000013,2,0,0,0.654,?,?,?,1.64,0.87,0.414,0,0,0,0,0,0,0,0,0,0,0,0,0,0,0,0,0,0,0,0,0,0,0,0,0,0,0,0,0,0,0,0,0,0,0,0,0,0,0.00251,0.544,-1,0.716,0,0,0,0,0,0,0,0,0,0,0,1
14713,0,0,0,0,0,0,0,0,0.677,1.02,-0.559,-1,1,-0.999,0.977,2,1,0.498,1.18,0.509,0.687,-0.92,0.259,0.47,0.837,0.366,0.131,0.000001,10000,0,1,0,14.8,0.0959,0,1,0,0,0,0,0,0,1,0.677,0.737,-0.355,0,0,0,0,0,10,0.131,0.000001,10000,1,0,14.8,0.0959,0.677,0.737,-0.355,6,0.00224,0.677,-1,0.737,0.454,-1,-0.999,-0.221,0,0,0,0,0,0,0,1
28329,0,0,0,0,0,0,0,0,0.76,1.06,-0.809,1,0.0273,0.00062,-0.000026,1,0,0,0.882,?,?,?,1.13,0.365,0.57,0.191,0.232,0.000001,10000,1,-1,508,4.15,0.26,0,0,0,0,0,0,0,0,1,0.76,0.675,-0.808,0,0,0,0,0,10,0.232,0.000001,10000,-1,508,4.15,0.26,0.76,0.675,-0.808,-6,0.0436,0.76,1,0.675,0.755,1,0.00062,0.000172,0,0,0,0,0,0,0,0
4827,0,0,0,0,0,0,0,0,1.42,0.327,-0.978,-1,-0.996,-0.968,0.000649,3,2,0.495,1.47,-1.42,-0.863,-0.782,0.571,1.33,0.433,0,0,0,0,0,0,0,0,0,0,0,0,0,0,0,0,0,0,0,0,0,0,0,0,0,0,0,0,0,0,0,0,0,0,0,0,0,0,0.00347,1.42,-1,0.863,0,0,0,0,0,0,0,0,0,0,0,0
35539,0.755,0.594,-0.197,-1,0,0,0,0,1.28,0.0648,-0.192,1,0.746,-0.000369,0,0,1,0.5,1.05,?,?,?,2.02,0.565,0,0,0,0,0,0,0,0,0,0,0,0,0,0,0,0,0,0,0,0,0,0,0,0,0,0,0,0,0,0,0,0,0,0,0,0,0,0,0,0.0164,1.28,1,0.979,0,0,0,0,0.755,0.594,-0.197,-1,1,0.0251,0.982,0
